{
    "content": [
        {
            "videoId": "qlqNoaiUlSI",
            "chanel": "Barcheta",
            "title": "It's just an old mercedes #shorts #automobile #car #mercedes #mercedesbenz",
            "description": "🏎Hey guys!  This is my new video about cars 🏎 :           \n\n🔥Get ready to dive into the world of car racing and supercars, as well as classic cars.\n\nMake sure to subscribe to stay updated on all things automotive! In this video, you'll discover Your future cars and vehicles that might just become your dream rides.\n\n Don't miss out on this exciting journey! Subscribe now and join the automotive community.🔥\nSubscribe to my channel:https://youtube.com/@Barcheta?si=YSXNEzohfsIwP7nn\n#shorts #automobile #car #mercedes #mercedesbenz",
            "publishedAt": "2024-04-14T04:11:44.000Z",
            "thumbnail": "https://i.ytimg.com/vi/qlqNoaiUlSI/default.jpg",
            "viewCount": "16405195",
            "duration": "PT14S",
            "youtubeLink": "https://www.youtube.com/watch?v=qlqNoaiUlSI"
        },
        {
            "videoId": "su7JIQ9NLnE",
            "chanel": "cars_crazexd",
            "title": "Ford car commercial troll face meme🗿 | #shorts",
            "description": "",
            "publishedAt": "2024-03-09T11:57:00.000Z",
            "thumbnail": "https://i.ytimg.com/vi/su7JIQ9NLnE/default.jpg",
            "viewCount": "74483443",
            "duration": "PT37S",
            "youtubeLink": "https://www.youtube.com/watch?v=su7JIQ9NLnE"
        },
        {
            "videoId": "IWkfB28dgtQ",
            "chanel": "Sofia elizalde ",
            "title": "Magical Car 😳",
            "description": "#shorts #shortvideo #car #cars \n\nThis Video is only for education purpose. No one harmed in this. \n\nFor any Credit or video removal requests, please email sofiabusinessenquiry@gmail.com and I'II get back to you within 12 hours",
            "publishedAt": "2024-04-19T13:29:06.000Z",
            "thumbnail": "https://i.ytimg.com/vi/IWkfB28dgtQ/default.jpg",
            "viewCount": "2972399",
            "duration": "PT22S",
            "youtubeLink": "https://www.youtube.com/watch?v=IWkfB28dgtQ"
        },
        {
            "videoId": "d6j_xOG4sPo",
            "chanel": "BonBon Cars Tv",
            "title": "Mega RC Trucks RC Heavy Haulage RC Car Transport RC Traktor Volvo Lesu BL71 RC Wheel Loader Dozer!!",
            "description": "Mega RC Trucks RC Heavy Haulage RC Car Transport RC Traktor Volvo Lesu BL71 RC Wheel Loader Dozer!!",
            "publishedAt": "2024-03-18T10:00:33.000Z",
            "thumbnail": "https://i.ytimg.com/vi/d6j_xOG4sPo/default.jpg",
            "viewCount": "9964376",
            "duration": "PT33M14S",
            "youtubeLink": "https://www.youtube.com/watch?v=d6j_xOG4sPo"
        },
        {
            "videoId": "L_7Y_d8skj4",
            "chanel": "Tech Master Shorts",
            "title": "Rolls-Royce Car 🔥 you Won't Belive 🚨 #shorts @MasterWheels2024",
            "description": "Why Rolls Royce Cars Are So Expensive?\n#automobile  #wrap  #car  #rr  #rollsroyce \n\ninstagram-👇\n\n https://Instagram.com/tech_masterr\n\nTwitter-👇\n\nhttps://twitter.com/tech_masterr\n\nFacebook-👇\n\nhttps://www.facebook.com/dev.shinghan\n\nMain Channel-👇\n\nhttps://youtube.com/c/TechMasterAK\n\nbusiness inquiry:- itstechmaster@gmail.com\n\nDisclaimer\ncopyright disclaimer under Section 107 of the Copyright Act 1976, allowance is made for fair use for purposes such as criticism,comment, news,reporting teaching, scholarship, and research. fair use is a use permitted by copyright statute that might otherwise be infringing non-profit educational or personal use tips the balance in favor of fair use. No copyright infringement intended....",
            "publishedAt": "2024-04-19T14:17:01.000Z",
            "thumbnail": "https://i.ytimg.com/vi/L_7Y_d8skj4/default.jpg",
            "viewCount": "14046894",
            "duration": "PT53S",
            "youtubeLink": "https://www.youtube.com/watch?v=L_7Y_d8skj4"
        },
        {
            "videoId": "Or-5iaZN-pQ",
            "chanel": "Topper Guild",
            "title": "WHEN ALL THE SUPER CARS CAME TO LIFE 😳 - #shorts",
            "description": "🔥 FOLLOW ME (or I’ll kick you) 🔥\nInstagram: https://www.instagram.com/topperguild/?hl=en\nTikTok: https://www.tiktok.com/@topperguild?lang=en 👑 JOIN my Discord: https://discord.gg/8BpCNrBggk",
            "publishedAt": "2022-08-12T01:58:06.000Z",
            "thumbnail": "https://i.ytimg.com/vi/Or-5iaZN-pQ/default.jpg",
            "viewCount": "233157463",
            "duration": "PT15S",
            "youtubeLink": "https://www.youtube.com/watch?v=Or-5iaZN-pQ"
        },
        {
            "videoId": "VYr9dc88qyU",
            "chanel": "Baby Shark - Pinkfong Kids’ Songs & Stories",
            "title": "[LIVE🔴] ⭐️ NEW Pinkfong Super Rescue Team🚨 | Best Car Songs + More | Pinkfong",
            "description": "⭐️ NEW Pinkfong Super Rescue Team\n\nWatch Pinkfong Super Rescue Team Compilations NOW:\n\n➡️ Meet the NEW Super Rescue Team🚨 | Ep. 1~3 Compilation | Ambulance Police Car Fire Truck | Pinkfong : https://youtu.be/sT3Rcww4iLw\n\n➡️ Emergency! Super Rescue Team to the Rescue!🚨 | Ep. 4~6 Compilation | Pinkfong Super Rescue Team :  https://youtu.be/tflvj-Ol4GI\n\n➡️ We are the Super Rescue Team! | Ep. 1~6 Compilation | Super Rescue Team | Pinkfong : https://youtu.be/RoQk6oH73ZU\n\n➡️ 🚌 Five Little Buses Jumping on the Road and more | Compilation | Super Rescue Team | Pinkfong Cars : https://youtu.be/_Zvblue6-4A\n\n➡️ Let's Find the Criminal and more! 🚘 | Super Rescue Team🚨 | Car Song & Story | Pinkfong Baby Shark : https://youtu.be/h0sfdoBaw2w\n\nWatch 🦈Baby Shark from 👶🏼 Bebefinn: https://link.cleve.re/11982/01\n\nWatch the 10 Billion viewed Baby Shark Dance 🦈 ➡️https://www.youtube.com/watch?v=XqZsoesa55w\n\nEnjoy Fun & Educational Story & Songs for Kids from Pinkfong Baby Shark's Channel!\n\n--------------\nFollow us on Facebook for new updates and free promotions.\n★ Facebook: https://www.facebook.com/pinkfong.official\n★ Instagram: https://www.instagram.com/pinkfong.official/\n★ Twitter: https://twitter.com/Pinkfong\n★ Website: https://www.pinkfong.com/en/\n★ Official Merch Store: https://link.cleve.re/10483/\n \nCopyright © 2024 The Pinkfong Company, Inc.  All Rights Reserved.\n#pinkfong #babyshark #babysharksong #kidssongs",
            "publishedAt": "2024-05-22T06:41:03.000Z",
            "thumbnail": "https://i.ytimg.com/vi/VYr9dc88qyU/default_live.jpg",
            "viewCount": "150748",
            "duration": "P0D",
            "youtubeLink": "https://www.youtube.com/watch?v=VYr9dc88qyU"
        },
        {
            "videoId": "TbsHBucwQdk",
            "chanel": "Viking riders",
            "title": "top 3 modification in car #supercar #car #superbikes",
            "description": "top 3 modification in car #supercar #car #superbikes #carmodified #modifications",
            "publishedAt": "2024-04-30T05:02:23.000Z",
            "thumbnail": "https://i.ytimg.com/vi/TbsHBucwQdk/default.jpg",
            "viewCount": "2862377",
            "duration": "PT38S",
            "youtubeLink": "https://www.youtube.com/watch?v=TbsHBucwQdk"
        },
        {
            "videoId": "LwOFZcKHv_E",
            "chanel": "TECH-iELA Shorts",
            "title": "🚘 This Car has some exciting Features🔥 #carlover #techno #amazonfinds #gadgets",
            "description": "This is the New Gen MG Hector 2023\n👉🏻 Not Sponsored",
            "publishedAt": "2024-03-10T14:44:11.000Z",
            "thumbnail": "https://i.ytimg.com/vi/LwOFZcKHv_E/default.jpg",
            "viewCount": "33145194",
            "duration": "PT1M",
            "youtubeLink": "https://www.youtube.com/watch?v=LwOFZcKHv_E"
        },
        {
            "videoId": "7yIVq8ujFLQ",
            "chanel": "First Toons",
            "title": "Full episodes of Helper cars cartoons for kids LIVE. Learn colors. Cars & trucks + street vehicles",
            "description": "Come watch full episodes of Helper cars cartoons for kids in our new LIVE stream on First Toons channel for kids! Learn colors with cars and trucks, and all kinds of street vehicles for kids right now!",
            "publishedAt": "2024-05-23T12:15:52.000Z",
            "thumbnail": "https://i.ytimg.com/vi/7yIVq8ujFLQ/default_live.jpg",
            "viewCount": "11915",
            "duration": "P0D",
            "youtubeLink": "https://www.youtube.com/watch?v=7yIVq8ujFLQ"
        }
    ],
    "pageable": {
        "pageNumber": 1,
        "pageSize": 10,
        "sort": {
            "empty": true,
            "unsorted": true,
            "sorted": false
        },
        "offset": 10,
        "paged": true,
        "unpaged": false
    },
    "last": false,
    "totalElements": 1000000,
    "totalPages": 100000,
    "first": false,
    "size": 10,
    "number": 1,
    "sort": {
        "empty": true,
        "unsorted": true,
        "sorted": false
    },
    "numberOfElements": 10,
    "empty": false
}